<?xml version="1.0" encoding="UTF-8" standalone="no"?>
<!-- Created with Inkscape (http://www.inkscape.org/) -->

<svg
   xmlns:dc="http://purl.org/dc/elements/1.1/"
   xmlns:cc="http://creativecommons.org/ns#"
   xmlns:rdf="http://www.w3.org/1999/02/22-rdf-syntax-ns#"
   xmlns:svg="http://www.w3.org/2000/svg"
   xmlns="http://www.w3.org/2000/svg"
   xmlns:xlink="http://www.w3.org/1999/xlink"
   xmlns:sodipodi="http://sodipodi.sourceforge.net/DTD/sodipodi-0.dtd"
   xmlns:inkscape="http://www.inkscape.org/namespaces/inkscape"
   sodipodi:docname="woolly.svg"
   inkscape:version="0.48.4 r9939"
   version="1.1"
   id="svg2"
   height="1590.7408"
   width="3152.5308">
  <sodipodi:namedview
     id="base"
     pagecolor="#ffffff"
     bordercolor="#666666"
     borderopacity="1.0"
     inkscape:pageopacity="0.0"
     inkscape:pageshadow="2"
     inkscape:zoom="0.34637949"
     inkscape:cx="1576.2654"
     inkscape:cy="795.37042"
     inkscape:document-units="cm"
     inkscape:current-layer="layer1"
     showgrid="false"
     showguides="true"
     inkscape:guide-bbox="true"
     inkscape:window-width="1366"
     inkscape:window-height="767"
     inkscape:window-x="0"
     inkscape:window-y="0"
     inkscape:window-maximized="1"
     units="cm"
     showborder="true"
     fit-margin-top="0"
     fit-margin-left="0"
     fit-margin-right="0"
     fit-margin-bottom="0"
     borderlayer="false">
    <inkscape:grid
       type="xygrid"
       id="grid2989"
       empspacing="5"
       visible="true"
       enabled="true"
       snapvisiblegridlinesonly="true"
       units="cm"
       spacingx="0.8cm"
       spacingy="0.8cm"
       color="#0000ff"
       opacity="0.55294118"
       empcolor="#ff0000"
       empopacity="0.7372549"
       originx="29.568912cm"
       originy="8.7053269cm" />
  </sodipodi:namedview>
  <defs
     id="defs4">
    <marker
       style="overflow:visible"
       inkscape:stockid="InfiniteLineStart"
       id="InfiniteLineStart"
       refX="0"
       refY="0"
       orient="auto">
      <g
         id="g4496"
         style="fill:#000000"
         transform="translate(-13,0)">
        <circle
           d="M 3.8,0 C 3.8,0.44182781 3.4418278,0.80000001 3,0.80000001 2.5581722,0.80000001 2.2,0.44182781 2.2,0 c 0,-0.44182781 0.3581722,-0.80000001 0.8,-0.80000001 0.4418278,0 0.8,0.3581722 0.8,0.80000001 z"
           id="circle4498"
           r="0.80000001"
           cy="0"
           cx="3"
           sodipodi:cx="3"
           sodipodi:cy="0"
           sodipodi:rx="0.80000001"
           sodipodi:ry="0.80000001" />
        <circle
           d="M 7.3,0 C 7.3,0.44182781 6.9418278,0.80000001 6.5,0.80000001 6.0581722,0.80000001 5.7,0.44182781 5.7,0 c 0,-0.44182781 0.3581722,-0.80000001 0.8,-0.80000001 0.4418278,0 0.8,0.3581722 0.8,0.80000001 z"
           id="circle4500"
           r="0.80000001"
           cy="0"
           cx="6.5"
           sodipodi:cx="6.5"
           sodipodi:cy="0"
           sodipodi:rx="0.80000001"
           sodipodi:ry="0.80000001" />
        <circle
           d="M 10.8,0 C 10.8,0.44182781 10.441828,0.80000001 10,0.80000001 9.5581722,0.80000001 9.2,0.44182781 9.2,0 c 0,-0.44182781 0.3581722,-0.80000001 0.8,-0.80000001 0.441828,0 0.8,0.3581722 0.8,0.80000001 z"
           id="circle4502"
           r="0.80000001"
           cy="0"
           cx="10"
           sodipodi:cx="10"
           sodipodi:cy="0"
           sodipodi:rx="0.80000001"
           sodipodi:ry="0.80000001" />
      </g>
    </marker>
    <marker
       inkscape:stockid="Tail"
       orient="auto"
       refY="0"
       refX="0"
       id="Tail"
       style="overflow:visible">
      <g
         id="g4288"
         transform="scale(-1.2,-1.2)">
        <path
           id="path4290"
           d="M -3.8048674,-3.9585227 0.54352094,0"
           style="fill:none;stroke:#000000;stroke-width:0.80000001;stroke-linecap:round"
           inkscape:connector-curvature="0" />
        <path
           id="path4292"
           d="M -1.2866832,-3.9585227 3.0617053,0"
           style="fill:none;stroke:#000000;stroke-width:0.80000001;stroke-linecap:round"
           inkscape:connector-curvature="0" />
        <path
           id="path4294"
           d="M 1.3053582,-3.9585227 5.6537466,0"
           style="fill:none;stroke:#000000;stroke-width:0.80000001;stroke-linecap:round"
           inkscape:connector-curvature="0" />
        <path
           id="path4296"
           d="M -3.8048674,4.1775838 0.54352094,0.21974226"
           style="fill:none;stroke:#000000;stroke-width:0.80000001;stroke-linecap:round"
           inkscape:connector-curvature="0" />
        <path
           id="path4298"
           d="M -1.2866832,4.1775838 3.0617053,0.21974226"
           style="fill:none;stroke:#000000;stroke-width:0.80000001;stroke-linecap:round"
           inkscape:connector-curvature="0" />
        <path
           id="path4300"
           d="M 1.3053582,4.1775838 5.6537466,0.21974226"
           style="fill:none;stroke:#000000;stroke-width:0.80000001;stroke-linecap:round"
           inkscape:connector-curvature="0" />
      </g>
    </marker>
    <marker
       inkscape:stockid="Arrow1Lend"
       orient="auto"
       refY="0"
       refX="0"
       id="Arrow1Lend"
       style="overflow:visible">
      <path
         id="path4255"
         d="M 0,0 5,-5 -12.5,0 5,5 0,0 z"
         style="fill-rule:evenodd;stroke:#000000;stroke-width:1pt"
         transform="matrix(-0.8,0,0,-0.8,-10,0)"
         inkscape:connector-curvature="0" />
    </marker>
  </defs>
  <metadata
     id="metadata7">
    <rdf:RDF>
      <cc:Work
         rdf:about="">
        <dc:format>image/svg+xml</dc:format>
        <dc:type
           rdf:resource="http://purl.org/dc/dcmitype/StillImage" />
        <dc:title />
      </cc:Work>
    </rdf:RDF>
  </metadata>
  <g
     inkscape:label="Layer 1"
     inkscape:groupmode="layer"
     id="layer1">
    <g
       id="g-lflank"
       transform="translate(1047.7174,517.28436)">
      <g
         id="g5285"
         transform="matrix(0,1,-1,0,-430.43618,-695.37222)">
        <text
           transform="translate(0,287.36218)"
           sodipodi:linespacing="125%"
           id="text4062"
           y="-1142.9401"
           x="456.33206"
           style="font-size:14px;font-style:normal;font-variant:normal;font-weight:normal;font-stretch:normal;text-align:center;line-height:125%;letter-spacing:0px;word-spacing:0px;text-anchor:middle;fill:#000000;fill-opacity:1;stroke:none;font-family:Linux Biolinum O;-inkscape-font-specification:Linux Biolinum O"
           xml:space="preserve"><tspan
             style="font-size:32px"
             y="-1142.9401"
             x="456.33206"
             id="tspan4064"
             sodipodi:role="line">Shag</tspan></text>
        <path
           inkscape:connector-curvature="0"
           id="path4066"
           d="m 425.89687,-842.37062 71.0828,0"
           style="fill:none;stroke:#000000;stroke-width:0.99212599;stroke-linecap:butt;stroke-linejoin:miter;stroke-miterlimit:4;stroke-opacity:1;stroke-dasharray:none;marker-start:none;marker-end:url(#Arrow1Lend)" />
      </g>
      <use
         height="765"
         width="990"
         transform="matrix(-1,0,0,1,963.78125,-815.03381)"
         id="use3932"
         xlink:href="#g3927"
         y="0"
         x="0" />
      <use
         height="765"
         width="990"
         transform="translate(0,-815.03381)"
         id="page-lflank"
         xlink:href="#page-rflank"
         y="0"
         x="0" />
      <text
         xml:space="preserve"
         style="font-size:40px;font-style:normal;font-variant:normal;font-weight:normal;font-stretch:normal;text-align:center;line-height:125%;letter-spacing:0px;word-spacing:0px;text-anchor:middle;fill:#000000;fill-opacity:1;stroke:none;font-family:Linux Biolinum O;-inkscape-font-specification:Linux Biolinum O"
         x="562.99542"
         y="-431.10367"
         id="text5372"
         sodipodi:linespacing="125%"
         transform="translate(0,287.36218)"><tspan
           sodipodi:role="line"
           id="tspan5374"
           x="562.99542"
           y="-431.10367" /></text>
      <text
         xml:space="preserve"
         style="font-size:40px;font-style:normal;font-variant:normal;font-weight:normal;font-stretch:normal;text-align:center;line-height:125%;letter-spacing:0px;word-spacing:0px;text-anchor:middle;fill:#000000;fill-opacity:1;stroke:none;font-family:Linux Biolinum O;-inkscape-font-specification:Linux Biolinum O"
         x="523.89771"
         y="-428.53778"
         id="text5376"
         sodipodi:linespacing="125%"
         transform="translate(0,287.36218)"><tspan
           sodipodi:role="line"
           id="tspan5378"
           x="523.89771"
           y="-428.53778">Left Flank</tspan></text>
      <text
         xml:space="preserve"
         style="font-size:40px;font-style:normal;font-variant:normal;font-weight:normal;font-stretch:normal;text-align:center;line-height:125%;letter-spacing:0px;word-spacing:0px;text-anchor:middle;fill:#000000;fill-opacity:1;stroke:none;font-family:Linux Libertine O;-inkscape-font-specification:Linux Libertine O"
         x="722.42731"
         y="-437.80417"
         id="text3165"
         sodipodi:linespacing="125%"><tspan
           sodipodi:role="line"
           id="tspan3167"
           x="722.42731"
           y="-437.80417">L</tspan></text>
      <text
         xml:space="preserve"
         style="font-size:40px;font-style:normal;font-variant:normal;font-weight:normal;font-stretch:normal;text-align:center;line-height:125%;letter-spacing:0px;word-spacing:0px;text-anchor:middle;fill:#000000;fill-opacity:1;stroke:none;font-family:Linux Libertine O;-inkscape-font-specification:Linux Libertine O"
         x="795.04236"
         y="-354.01752"
         id="text3169"
         sodipodi:linespacing="125%"><tspan
           sodipodi:role="line"
           id="tspan3171"
           x="795.04236"
           y="-354.01752">L'</tspan></text>
      <text
         xml:space="preserve"
         style="font-size:40px;font-style:normal;font-variant:normal;font-weight:normal;font-stretch:normal;text-align:center;line-height:125%;letter-spacing:0px;word-spacing:0px;text-anchor:middle;fill:#000000;fill-opacity:1;stroke:none;font-family:Linux Libertine O;-inkscape-font-specification:Linux Libertine O"
         x="13.033482"
         y="143.11673"
         id="text3173"
         sodipodi:linespacing="125%"><tspan
           sodipodi:role="line"
           id="tspan3175"
           x="13.033482"
           y="143.11673">M</tspan></text>
      <text
         xml:space="preserve"
         style="font-size:40px;font-style:normal;font-variant:normal;font-weight:normal;font-stretch:normal;text-align:center;line-height:125%;letter-spacing:0px;word-spacing:0px;text-anchor:middle;fill:#000000;fill-opacity:1;stroke:none;font-family:Linux Libertine O;-inkscape-font-specification:Linux Libertine O"
         x="445.00031"
         y="143.11673"
         id="text3177"
         sodipodi:linespacing="125%"><tspan
           sodipodi:role="line"
           id="tspan3179"
           x="445.00031"
           y="143.11673">M'</tspan></text>
      <text
         xml:space="preserve"
         style="font-size:40px;font-style:normal;font-variant:normal;font-weight:normal;font-stretch:normal;text-align:center;line-height:125%;letter-spacing:0px;word-spacing:0px;text-anchor:middle;fill:#000000;fill-opacity:1;stroke:none;font-family:Linux Libertine O;-inkscape-font-specification:Linux Libertine O"
         x="498.99615"
         y="143.11673"
         id="text3181"
         sodipodi:linespacing="125%"><tspan
           sodipodi:role="line"
           id="tspan3183"
           x="498.99615"
           y="143.11673">N</tspan></text>
      <text
         xml:space="preserve"
         style="font-size:40px;font-style:normal;font-variant:normal;font-weight:normal;font-stretch:normal;text-align:center;line-height:125%;letter-spacing:0px;word-spacing:0px;text-anchor:middle;fill:#000000;fill-opacity:1;stroke:none;font-family:Linux Libertine O;-inkscape-font-specification:Linux Libertine O"
         x="927.23914"
         y="143.11673"
         id="text3185"
         sodipodi:linespacing="125%"><tspan
           sodipodi:role="line"
           id="tspan3187"
           x="927.23914"
           y="143.11673">N'</tspan></text>
      <text
         xml:space="preserve"
         style="font-size:40px;font-style:normal;font-variant:normal;font-weight:normal;font-stretch:normal;text-align:center;line-height:125%;letter-spacing:0px;word-spacing:0px;text-anchor:middle;fill:#000000;fill-opacity:1;stroke:none;font-family:Linux Libertine O;-inkscape-font-specification:Linux Libertine O"
         x="27.92889"
         y="-141.75793"
         id="text3189"
         sodipodi:linespacing="125%"><tspan
           sodipodi:role="line"
           id="tspan3191"
           x="27.92889"
           y="-141.75793">H'</tspan></text>
      <text
         xml:space="preserve"
         style="font-size:40px;font-style:normal;font-variant:normal;font-weight:normal;font-stretch:normal;text-align:center;line-height:125%;letter-spacing:0px;word-spacing:0px;text-anchor:middle;fill:#000000;fill-opacity:1;stroke:none;font-family:Linux Libertine O;-inkscape-font-specification:Linux Libertine O"
         x="932.82489"
         y="-160.37721"
         id="text3193"
         sodipodi:linespacing="125%"><tspan
           sodipodi:role="line"
           id="tspan3195"
           x="932.82489"
           y="-160.37721">D'</tspan></text>
      <text
         xml:space="preserve"
         style="font-size:40px;font-style:normal;font-variant:normal;font-weight:normal;font-stretch:normal;text-align:center;line-height:125%;letter-spacing:0px;word-spacing:0px;text-anchor:middle;fill:#000000;fill-opacity:1;stroke:none;font-family:Linux Libertine O;-inkscape-font-specification:Linux Libertine O"
         x="351.90402"
         y="-465.73306"
         id="text3197"
         sodipodi:linespacing="125%"><tspan
           sodipodi:role="line"
           id="tspan3199"
           x="351.90402"
           y="-465.73306">E'</tspan></text>
      <text
         xml:space="preserve"
         style="font-size:40px;font-style:normal;font-variant:normal;font-weight:normal;font-stretch:normal;text-align:center;line-height:125%;letter-spacing:0px;word-spacing:0px;text-anchor:middle;fill:#000000;fill-opacity:1;stroke:none;font-family:Linux Libertine O;-inkscape-font-specification:Linux Libertine O"
         x="132.19675"
         y="-380.08447"
         id="text3201"
         sodipodi:linespacing="125%"><tspan
           sodipodi:role="line"
           id="tspan3203"
           x="132.19675"
           y="-380.08447">O</tspan></text>
      <text
         xml:space="preserve"
         style="font-size:40px;font-style:normal;font-variant:normal;font-weight:normal;font-stretch:normal;text-align:center;line-height:125%;letter-spacing:0px;word-spacing:0px;text-anchor:middle;fill:#000000;fill-opacity:1;stroke:none;font-family:Linux Libertine O;-inkscape-font-specification:Linux Libertine O"
         x="42.824299"
         y="-301.88358"
         id="text3205"
         sodipodi:linespacing="125%"><tspan
           sodipodi:role="line"
           id="tspan3207"
           x="42.824299"
           y="-301.88358">P</tspan></text>
      <text
         xml:space="preserve"
         style="font-size:40px;font-style:normal;font-variant:normal;font-weight:normal;font-stretch:normal;text-align:center;line-height:125%;letter-spacing:0px;word-spacing:0px;text-anchor:middle;fill:#000000;fill-opacity:1;stroke:none;font-family:Linux Libertine O;-inkscape-font-specification:Linux Libertine O"
         x="72.615112"
         y="23.953468"
         id="text3209"
         sodipodi:linespacing="125%"><tspan
           sodipodi:role="line"
           id="tspan3211"
           x="72.615112"
           y="23.953468">Q</tspan></text>
      <text
         xml:space="preserve"
         style="font-size:40px;font-style:normal;font-variant:normal;font-weight:normal;font-stretch:normal;text-align:center;line-height:125%;letter-spacing:0px;word-spacing:0px;text-anchor:middle;fill:#000000;fill-opacity:1;stroke:none;font-family:Linux Libertine O;-inkscape-font-specification:Linux Libertine O"
         x="480.37689"
         y="23.95347"
         id="text3213"
         sodipodi:linespacing="125%"><tspan
           sodipodi:role="line"
           id="tspan3215"
           x="480.37689"
           y="23.95347">R</tspan></text>
      <text
         xml:space="preserve"
         style="font-size:40px;font-style:normal;font-variant:normal;font-weight:normal;font-stretch:normal;text-align:center;line-height:125%;letter-spacing:0px;word-spacing:0px;text-anchor:middle;fill:#000000;fill-opacity:1;stroke:none;font-family:Linux Libertine O;-inkscape-font-specification:Linux Libertine O"
         x="904.896"
         y="25.815395"
         id="text3217"
         sodipodi:linespacing="125%"><tspan
           sodipodi:role="line"
           id="tspan3219"
           x="904.896"
           y="25.815395">S</tspan></text>
      <use
         x="0"
         y="0"
         xlink:href="#g3243"
         id="use3257-2"
         transform="translate(-2542.848,-1921.0806)"
         width="990"
         height="765" />
    </g>
    <g
       id="g-hide"
       transform="translate(583.51755,171.10141)">
      <g
         transform="translate(-78.677944,-3.9338972)"
         id="g3950">
        <g
           id="g3903"
           transform="translate(513.50684,-62.942355)">
          <g
             transform="translate(1725.3405,-421.43564)"
             id="g3891">
            <path
               sodipodi:type="inkscape:offset"
               inkscape:radius="16.970562"
               inkscape:original="M -56.6875 655.5 C -98.760191 655.5 -132.875 689.61481 -132.875 731.6875 C -132.875 773.76019 -98.760191 807.875 -56.6875 807.875 C -14.614809 807.875 19.5 773.76019 19.5 731.6875 C 19.5 689.61481 -14.614809 655.5 -56.6875 655.5 z "
               xlink:href="#path3052"
               style="fill:none;stroke:#000000;stroke-width:0.92292917;stroke-linecap:butt;stroke-linejoin:round;stroke-miterlimit:4;stroke-opacity:1;stroke-dasharray:none;stroke-dashoffset:0"
               id="path3873"
               inkscape:href="#path3052"
               d="m -56.6875,638.53125 c -51.24646,0 -93.15625,41.90979 -93.15625,93.15625 0,51.24646 41.90979,93.15625 93.15625,93.15625 51.2464564,0 93.15625,-41.90979 93.15625,-93.15625 0,-51.24646 -41.9097936,-93.15625 -93.15625,-93.15625 z" />
            <path
               sodipodi:type="arc"
               style="fill:none;stroke:#000000;stroke-width:0.92292917;stroke-linecap:butt;stroke-linejoin:round;stroke-miterlimit:4;stroke-opacity:1;stroke-dasharray:none;stroke-dashoffset:0"
               id="path3052"
               sodipodi:cx="212.59842"
               sodipodi:cy="552.40155"
               sodipodi:rx="70.866142"
               sodipodi:ry="70.866142"
               d="m 283.46456,552.40155 c 0,39.13829 -31.72785,70.86614 -70.86614,70.86614 -39.13829,0 -70.86614,-31.72785 -70.86614,-70.86614 0,-39.13829 31.72785,-70.86614 70.86614,-70.86614 39.13829,0 70.86614,31.72785 70.86614,70.86614 z"
               transform="matrix(1.0749752,0,0,1.0749752,-285.23094,137.87316)" />
            <text
               xml:space="preserve"
               style="font-size:40px;font-style:normal;font-variant:normal;font-weight:normal;font-stretch:normal;text-align:center;line-height:125%;letter-spacing:0px;word-spacing:0px;text-anchor:middle;fill:#000000;fill-opacity:1;stroke:none;font-family:Linux Biolinum O;-inkscape-font-specification:Linux Biolinum O"
               x="-57.716038"
               y="744.45111"
               id="text5426"
               sodipodi:linespacing="125%"><tspan
                 sodipodi:role="line"
                 id="tspan5428"
                 x="-57.716038"
                 y="744.45111">Foot</tspan></text>
          </g>
          <use
             height="765"
             width="990"
             transform="translate(214.96046,0)"
             id="use3895"
             xlink:href="#g3891"
             y="0"
             x="0" />
          <use
             height="765"
             width="990"
             transform="translate(0,209.30361)"
             id="use3899"
             xlink:href="#g3891"
             y="0"
             x="0" />
          <use
             height="765"
             width="990"
             transform="translate(214.96046,0)"
             id="use3901"
             xlink:href="#use3899"
             y="0"
             x="0" />
        </g>
        <g
           id="g3915"
           transform="translate(571.20391,-372.68861)">
          <path
             d="m 1105.5,584.03125 a 14.786339,14.786339 0 0 0 -14.7812,14.78125 l 0,311.8125 a 14.786339,14.786339 0 0 0 14.7812,14.78125 l 255.125,0 a 14.786339,14.786339 0 0 0 14.7812,-14.78125 l 0,-311.8125 a 14.786339,14.786339 0 0 0 -14.7812,-14.78125 l -255.125,0 z"
             inkscape:href="#path3911"
             id="path3913"
             style="fill:none;stroke:#000000;stroke-width:1px;stroke-linecap:butt;stroke-linejoin:miter;stroke-opacity:1"
             xlink:href="#path3911"
             inkscape:original="M 1105.5 598.8125 L 1105.5 910.625 L 1360.625 910.625 L 1360.625 598.8125 L 1105.5 598.8125 z "
             inkscape:radius="14.784861"
             sodipodi:type="inkscape:offset" />
          <path
             inkscape:connector-curvature="0"
             id="path3911"
             d="m 1105.5118,598.81887 255.1181,0 0,311.81103 -255.1181,0 z"
             style="fill:none;stroke:#000000;stroke-width:1px;stroke-linecap:butt;stroke-linejoin:miter;stroke-opacity:1" />
        </g>
        <use
           height="765"
           width="990"
           transform="translate(584.95957,-200.52889)"
           id="use3993"
           xlink:href="#g3877"
           y="0"
           x="0" />
        <use
           height="765"
           width="990"
           transform="matrix(-1,0,0,1,3191.5817,-200.52889)"
           id="use3995"
           xlink:href="#g3877"
           y="0"
           x="0" />
      </g>
      <use
         height="765"
         width="990"
         transform="translate(1499.3769,-471.96082)"
         id="page-lining"
         xlink:href="#page-rflank"
         y="0"
         x="0" />
      <text
         xml:space="preserve"
         style="font-size:40px;font-style:normal;font-variant:normal;font-weight:normal;font-stretch:normal;text-align:center;line-height:125%;letter-spacing:0px;word-spacing:0px;text-anchor:middle;fill:#000000;fill-opacity:1;stroke:none;font-family:Linux Biolinum O;-inkscape-font-specification:Linux Biolinum O"
         x="1682.4315"
         y="0.19337741"
         id="text5408"
         sodipodi:linespacing="125%"><tspan
           sodipodi:role="line"
           id="tspan5410"
           x="1682.4315"
           y="0.19337741">Left</tspan><tspan
           sodipodi:role="line"
           x="1682.4315"
           y="50.193378"
           id="tspan5412">Ear</tspan></text>
      <text
         xml:space="preserve"
         style="font-size:40px;font-style:normal;font-variant:normal;font-weight:normal;font-stretch:normal;text-align:center;line-height:125%;letter-spacing:0px;word-spacing:0px;text-anchor:middle;fill:#000000;fill-opacity:1;stroke:none;font-family:Linux Biolinum O;-inkscape-font-specification:Linux Biolinum O"
         x="1924.5283"
         y="-1.743428"
         id="text5414"
         sodipodi:linespacing="125%"><tspan
           sodipodi:role="line"
           id="tspan5416"
           x="1924.5283"
           y="-1.743428">Right</tspan><tspan
           sodipodi:role="line"
           x="1924.5283"
           y="48.256573"
           id="tspan5418">Ear</tspan></text>
      <text
         xml:space="preserve"
         style="font-size:40px;font-style:normal;font-variant:normal;font-weight:normal;font-stretch:normal;text-align:center;line-height:125%;letter-spacing:0px;word-spacing:0px;text-anchor:middle;fill:#000000;fill-opacity:1;stroke:none;font-family:Linux Biolinum O;-inkscape-font-specification:Linux Biolinum O"
         x="1721.1671"
         y="352.68646"
         id="text5420"
         sodipodi:linespacing="125%"><tspan
           sodipodi:role="line"
           id="tspan5422"
           x="1721.1671"
           y="352.68646">Trunk</tspan><tspan
           sodipodi:role="line"
           x="1721.1671"
           y="402.68646"
           id="tspan5424">Lining</tspan></text>
      <text
         xml:space="preserve"
         style="font-size:40px;font-style:normal;font-variant:normal;font-weight:normal;font-stretch:normal;text-align:start;line-height:125%;letter-spacing:0px;word-spacing:0px;text-anchor:start;fill:#000000;fill-opacity:1;stroke:none;font-family:Linux Libertine O;-inkscape-font-specification:Linux Libertine O"
         x="1651.9963"
         y="-695.32855"
         id="text5457"
         sodipodi:linespacing="125%"
         transform="translate(464.19986,633.54513)"><tspan
           sodipodi:role="line"
           id="tspan5459"
           x="1651.9963"
           y="-695.32855"><tspan
   style="font-weight:bold;-inkscape-font-specification:Linux Libertine O Bold"
   id="tspan3216">Hide</tspan>:</tspan><tspan
           sodipodi:role="line"
           x="1651.9963"
           y="-645.32855"
           id="tspan5461">This page should be</tspan><tspan
           sodipodi:role="line"
           x="1651.9963"
           y="-595.32855"
           id="tspan5463">cut from smooth</tspan><tspan
           sodipodi:role="line"
           x="1651.9963"
           y="-545.32855"
           id="tspan5465">fabric</tspan></text>
      <text
         xml:space="preserve"
         style="font-size:40px;font-style:normal;font-variant:normal;font-weight:normal;font-stretch:normal;text-align:center;line-height:125%;letter-spacing:0px;word-spacing:0px;text-anchor:middle;fill:#000000;fill-opacity:1;stroke:none;font-family:Linux Libertine O;-inkscape-font-specification:Linux Libertine O"
         x="1734.0334"
         y="526.53821"
         id="text3280"
         sodipodi:linespacing="125%"><tspan
           sodipodi:role="line"
           id="tspan3282"
           x="1734.0334"
           y="526.53821">V'</tspan></text>
      <text
         xml:space="preserve"
         style="font-size:40px;font-style:normal;font-variant:normal;font-weight:normal;font-stretch:normal;text-align:center;line-height:125%;letter-spacing:0px;word-spacing:0px;text-anchor:middle;fill:#000000;fill-opacity:1;stroke:none;font-family:Linux Libertine O;-inkscape-font-specification:Linux Libertine O"
         x="1622.3179"
         y="383.16989"
         id="text3284"
         sodipodi:linespacing="125%"><tspan
           sodipodi:role="line"
           id="tspan3286"
           x="1622.3179"
           y="383.16989">W</tspan></text>
      <text
         xml:space="preserve"
         style="font-size:40px;font-style:normal;font-variant:normal;font-weight:normal;font-stretch:normal;text-align:center;line-height:125%;letter-spacing:0px;word-spacing:0px;text-anchor:middle;fill:#000000;fill-opacity:1;stroke:none;font-family:Linux Libertine O;-inkscape-font-specification:Linux Libertine O"
         x="1827.1296"
         y="379.44604"
         id="text3288"
         sodipodi:linespacing="125%"><tspan
           sodipodi:role="line"
           id="tspan3290"
           x="1827.1296"
           y="379.44604">W'</tspan></text>
      <text
         xml:space="preserve"
         style="font-size:40px;font-style:normal;font-variant:normal;font-weight:normal;font-stretch:normal;text-align:center;line-height:125%;letter-spacing:0px;word-spacing:0px;text-anchor:middle;fill:#000000;fill-opacity:1;stroke:none;font-family:Linux Libertine O;-inkscape-font-specification:Linux Libertine O"
         x="1754.1921"
         y="24.7791"
         id="text3336"
         sodipodi:linespacing="125%"><tspan
           sodipodi:role="line"
           id="tspan3338"
           x="1754.1921"
           y="24.7791">O''</tspan></text>
      <text
         xml:space="preserve"
         style="font-size:40px;font-style:normal;font-variant:normal;font-weight:normal;font-stretch:normal;text-align:center;line-height:125%;letter-spacing:0px;word-spacing:0px;text-anchor:middle;fill:#000000;fill-opacity:1;stroke:none;font-family:Linux Libertine O;-inkscape-font-specification:Linux Libertine O"
         x="1857.7546"
         y="26.936632"
         id="text3344"
         sodipodi:linespacing="125%"><tspan
           sodipodi:role="line"
           id="tspan3346"
           x="1857.7546"
           y="26.936632">F''</tspan></text>
      <use
         x="0"
         y="0"
         xlink:href="#g3243"
         id="use3257-21"
         transform="translate(-777.16735,-1636.9247)"
         width="990"
         height="765"
         inkscape:transform-center-x="104.46669"
         inkscape:transform-center-y="-154.52365" />
    </g>
    <g
       id="g-rflank"
       transform="translate(1047.7174,517.28436)">
      <g
         id="g3927">
        <path
           sodipodi:type="inkscape:offset"
           inkscape:radius="10.112492"
           inkscape:original="M 198.4375 315.34375 L 255.125 457.09375 L 113.375 400.40625 C -0.010830866 428.75271 0.142249 569.37817 0 570.46875 L 0 1052.375 L 963.78125 1052.375 L 963.78125 428.75 L 935.4375 400.40625 L 850.40625 598.8125 L 850.40625 315.34375 L 198.4375 315.34375 z "
           xlink:href="#path3024"
           style="fill:none;stroke:#000000;stroke-width:1px;stroke-linecap:butt;stroke-linejoin:miter;stroke-opacity:1"
           id="path3865"
           inkscape:href="#path3024"
           d="m 198.4375,305.21875 a 10.113503,10.113503 0 0 0 -9.375,13.875 L 237,438.96875 117.125,391.03125 a 10.113503,10.113503 0 0 0 -6.1875,-0.4375 C 50.426313,405.72155 19.549073,451.49218 4.71875,492.1875 -2.6964114,512.53516 -6.3398405,531.79962 -8.1875,546.125 c -0.9238298,7.16269 -1.4137412,13.1059 -1.65625,17.3125 -0.1212544,2.1033 -0.182166,3.77023 -0.21875,4.9375 -0.01829,0.58364 -0.02389,1.04421 -0.03125,1.34375 -0.0037,0.14977 0.001,0.24706 0,0.28125 a 10.113503,10.113503 0 0 0 -0.03125,0.46875 l 0,481.90625 A 10.113503,10.113503 0 0 0 0,1062.5 l 963.78125,0 a 10.113503,10.113503 0 0 0 10.125,-10.125 l 0,-623.625 a 10.113503,10.113503 0 0 0 -2.96875,-7.15625 L 942.59375,393.25 a 10.113503,10.113503 0 0 0 -16.4375,3.1875 l -65.625,153.125 0,-234.21875 a 10.113503,10.113503 0 0 0 -10.125,-10.125 l -651.96875,0 z" />
        <path
           id="path3855"
           style="fill:none;stroke:#000000;stroke-width:1px;stroke-linecap:butt;stroke-linejoin:miter;stroke-opacity:1"
           d="m 850.3937,853.93698 113.38583,0 m -963.77953,0 113.38583,0 m 141.73229,0 453.5433,0 m -226.77165,0 0,198.42522"
           inkscape:connector-curvature="0" />
        <path
           id="path3024"
           style="fill:none;stroke:#000000;stroke-width:1px;stroke-linecap:butt;stroke-linejoin:miter;stroke-opacity:1"
           d="m 963.77953,428.74013 -28.34645,-28.34646 -85.03938,198.4252 0,-283.46457 -651.9685,0 56.69291,141.73228 -141.73228,-56.69291 C -8.6614145e-7,428.74013 0.14224813,569.38183 -8.6614145e-7,570.47241 L 0,1052.3622 l 963.77953,0 z"
           inkscape:connector-curvature="0"
           sodipodi:nodetypes="ccccccccccc" />
      </g>
      <rect
         transform="matrix(0,-1,1,0,0,0)"
         y="-13.109375"
         x="-1066.3594"
         height="990"
         width="765"
         id="page-rflank"
         style="fill:none;stroke:#000000;stroke-opacity:1" />
      <use
         height="765"
         width="990"
         transform="translate(150.96095,826.16809)"
         id="use5298"
         xlink:href="#g5285"
         y="0"
         x="0" />
      <text
         xml:space="preserve"
         style="font-size:40px;font-style:normal;font-variant:normal;font-weight:normal;font-stretch:normal;text-align:center;line-height:125%;letter-spacing:0px;word-spacing:0px;text-anchor:middle;fill:#000000;fill-opacity:1;stroke:none;font-family:Linux Biolinum O;-inkscape-font-specification:Linux Biolinum O"
         x="313.7576"
         y="455.11594"
         id="text5388"
         sodipodi:linespacing="125%"
         transform="translate(0,287.36218)"><tspan
           sodipodi:role="line"
           id="tspan5390"
           x="313.7576"
           y="455.11594">Right Flank</tspan></text>
      <text
         xml:space="preserve"
         style="font-size:40px;font-style:normal;font-variant:normal;font-weight:normal;font-stretch:normal;text-align:center;line-height:125%;letter-spacing:0px;word-spacing:0px;text-anchor:middle;fill:#000000;fill-opacity:1;stroke:none;font-family:Linux Libertine O;-inkscape-font-specification:Linux Libertine O"
         x="158.92906"
         y="465.24768"
         id="text3109"
         sodipodi:linespacing="125%"><tspan
           sodipodi:role="line"
           id="tspan3111"
           x="158.92906"
           y="465.24768">A</tspan></text>
      <text
         xml:space="preserve"
         style="font-size:40px;font-style:normal;font-variant:normal;font-weight:normal;font-stretch:normal;text-align:center;line-height:125%;letter-spacing:0px;word-spacing:0px;text-anchor:middle;fill:#000000;fill-opacity:1;stroke:none;font-family:Linux Libertine O;-inkscape-font-specification:Linux Libertine O"
         x="239.39949"
         y="370.69495"
         id="text3113"
         sodipodi:linespacing="125%"><tspan
           sodipodi:role="line"
           id="tspan3115"
           x="239.39949"
           y="370.69495">A'</tspan></text>
      <text
         xml:space="preserve"
         style="font-size:40px;font-style:normal;font-variant:normal;font-weight:normal;font-stretch:normal;text-align:center;line-height:125%;letter-spacing:0px;word-spacing:0px;text-anchor:middle;fill:#000000;fill-opacity:1;stroke:none;font-family:Linux Libertine O;-inkscape-font-specification:Linux Libertine O"
         x="14.082323"
         y="974.22308"
         id="text3117"
         sodipodi:linespacing="125%"><tspan
           sodipodi:role="line"
           id="tspan3119"
           x="14.082323"
           y="974.22308">B</tspan></text>
      <text
         xml:space="preserve"
         style="font-size:40px;font-style:normal;font-variant:normal;font-weight:normal;font-stretch:normal;text-align:center;line-height:125%;letter-spacing:0px;word-spacing:0px;text-anchor:middle;fill:#000000;fill-opacity:1;stroke:none;font-family:Linux Libertine O;-inkscape-font-specification:Linux Libertine O"
         x="452.50497"
         y="974.22308"
         id="text3121"
         sodipodi:linespacing="125%"><tspan
           sodipodi:role="line"
           id="tspan3123"
           x="452.50497"
           y="974.22308">B'</tspan></text>
      <text
         xml:space="preserve"
         style="font-size:40px;font-style:normal;font-variant:normal;font-weight:normal;font-stretch:normal;text-align:center;line-height:125%;letter-spacing:0px;word-spacing:0px;text-anchor:middle;fill:#000000;fill-opacity:1;stroke:none;font-family:Linux Libertine O;-inkscape-font-specification:Linux Libertine O"
         x="502.94012"
         y="974.22308"
         id="text3125"
         sodipodi:linespacing="125%"><tspan
           sodipodi:role="line"
           id="tspan3127"
           x="502.94012"
           y="974.22308">C</tspan></text>
      <text
         xml:space="preserve"
         style="font-size:40px;font-style:normal;font-variant:normal;font-weight:normal;font-stretch:normal;text-align:center;line-height:125%;letter-spacing:0px;word-spacing:0px;text-anchor:middle;fill:#000000;fill-opacity:1;stroke:none;font-family:Linux Libertine O;-inkscape-font-specification:Linux Libertine O"
         x="937.48035"
         y="974.22308"
         id="text3129"
         sodipodi:linespacing="125%"><tspan
           sodipodi:role="line"
           id="tspan3131"
           x="937.48035"
           y="974.22308">C'</tspan></text>
      <text
         xml:space="preserve"
         style="font-size:40px;font-style:normal;font-variant:normal;font-weight:normal;font-stretch:normal;text-align:center;line-height:125%;letter-spacing:0px;word-spacing:0px;text-anchor:middle;fill:#000000;fill-opacity:1;stroke:none;font-family:Linux Libertine O;-inkscape-font-specification:Linux Libertine O"
         x="22.129366"
         y="648.31787"
         id="text3133"
         sodipodi:linespacing="125%"><tspan
           sodipodi:role="line"
           id="tspan3135"
           x="22.129366"
           y="648.31787">D</tspan></text>
      <text
         xml:space="preserve"
         style="font-size:40px;font-style:normal;font-variant:normal;font-weight:normal;font-stretch:normal;text-align:center;line-height:125%;letter-spacing:0px;word-spacing:0px;text-anchor:middle;fill:#000000;fill-opacity:1;stroke:none;font-family:Linux Libertine O;-inkscape-font-specification:Linux Libertine O"
         x="517.0224"
         y="356.61261"
         id="text3137"
         sodipodi:linespacing="125%"><tspan
           sodipodi:role="line"
           id="tspan3139"
           x="517.0224"
           y="356.61261">E</tspan></text>
      <text
         xml:space="preserve"
         style="font-size:40px;font-style:normal;font-variant:normal;font-weight:normal;font-stretch:normal;text-align:center;line-height:125%;letter-spacing:0px;word-spacing:0px;text-anchor:middle;fill:#000000;fill-opacity:1;stroke:none;font-family:Linux Libertine O;-inkscape-font-specification:Linux Libertine O"
         x="933.33923"
         y="694.5766"
         id="text3141"
         sodipodi:linespacing="125%"><tspan
           sodipodi:role="line"
           id="tspan3143"
           x="933.33923"
           y="694.5766">H</tspan></text>
      <text
         xml:space="preserve"
         style="font-size:40px;font-style:normal;font-variant:normal;font-weight:normal;font-stretch:normal;text-align:center;line-height:125%;letter-spacing:0px;word-spacing:0px;text-anchor:middle;fill:#000000;fill-opacity:1;stroke:none;font-family:Linux Libertine O;-inkscape-font-specification:Linux Libertine O"
         x="836.00476"
         y="437.30106"
         id="text3145"
         sodipodi:linespacing="125%"><tspan
           sodipodi:role="line"
           id="tspan3147"
           x="836.00476"
           y="437.30106">F</tspan></text>
      <text
         xml:space="preserve"
         style="font-size:40px;font-style:normal;font-variant:normal;font-weight:normal;font-stretch:normal;text-align:center;line-height:125%;letter-spacing:0px;word-spacing:0px;text-anchor:middle;fill:#000000;fill-opacity:1;stroke:none;font-family:Linux Libertine O;-inkscape-font-specification:Linux Libertine O"
         x="916.06763"
         y="513.64001"
         id="text3149"
         sodipodi:linespacing="125%"><tspan
           sodipodi:role="line"
           id="tspan3151"
           x="916.06763"
           y="513.64001">G</tspan></text>
      <text
         xml:space="preserve"
         style="font-size:40px;font-style:normal;font-variant:normal;font-weight:normal;font-stretch:normal;text-align:center;line-height:125%;letter-spacing:0px;word-spacing:0px;text-anchor:middle;fill:#000000;fill-opacity:1;stroke:none;font-family:Linux Libertine O;-inkscape-font-specification:Linux Libertine O"
         x="485.96268"
         y="835.75317"
         id="text3153"
         sodipodi:linespacing="125%"><tspan
           sodipodi:role="line"
           id="tspan3155"
           x="485.96268"
           y="835.75317">J</tspan></text>
      <text
         xml:space="preserve"
         style="font-size:40px;font-style:normal;font-variant:normal;font-weight:normal;font-stretch:normal;text-align:center;line-height:125%;letter-spacing:0px;word-spacing:0px;text-anchor:middle;fill:#000000;fill-opacity:1;stroke:none;font-family:Linux Libertine O;-inkscape-font-specification:Linux Libertine O"
         x="897.4483"
         y="832.02936"
         id="text3157"
         sodipodi:linespacing="125%"><tspan
           sodipodi:role="line"
           id="tspan3159"
           x="897.4483"
           y="832.02936">I</tspan></text>
      <text
         xml:space="preserve"
         style="font-size:40px;font-style:normal;font-variant:normal;font-weight:normal;font-stretch:normal;text-align:center;line-height:125%;letter-spacing:0px;word-spacing:0px;text-anchor:middle;fill:#000000;fill-opacity:1;stroke:none;font-family:Linux Libertine O;-inkscape-font-specification:Linux Libertine O"
         x="35.376595"
         y="833.89124"
         id="text3161"
         sodipodi:linespacing="125%"><tspan
           sodipodi:role="line"
           id="tspan3163"
           x="35.376595"
           y="833.89124">K</tspan></text>
      <use
         x="0"
         y="0"
         xlink:href="#g3243"
         id="use3257-27"
         transform="translate(-2719.1356,-983.0567)"
         width="990"
         height="765" />
    </g>
    <g
       id="g-belly"
       transform="translate(1047.7174,517.28436)">
      <g
         transform="translate(-114.08301,-385.52192)"
         id="g3938">
        <path
           sodipodi:type="inkscape:offset"
           inkscape:radius="11.401754"
           inkscape:original="M 1303.9375 740.5625 C 1445.6698 825.60191 1247.2555 995.67244 1190.5625 825.59375 L 1190.5625 1279.125 C 1247.2555 1109.0463 1445.6698 1279.1481 1303.9375 1364.1875 L 1559.0625 1364.1875 C 1417.3302 1279.1481 1615.7446 1109.0463 1672.4375 1279.125 L 1672.4375 825.59375 C 1615.7446 995.67245 1417.3302 825.60191 1559.0625 740.5625 L 1303.9375 740.5625 z "
           xlink:href="#path3027"
           style="fill:none;stroke:#000000;stroke-width:0.99212599;stroke-linecap:butt;stroke-linejoin:miter;stroke-miterlimit:4;stroke-opacity:1;stroke-dasharray:none"
           id="path3871"
           inkscape:href="#path3027"
           d="m 1303.9375,729.15625 a 11.402895,11.402895 0 0 0 -5.875,21.1875 c 32.989,19.79339 44.1599,42.37974 44.5313,63.5 0.3713,21.12026 -11.0286,42.08013 -28.1563,56.09375 -17.1277,14.01362 -39.1502,20.59343 -59.3125,15.09375 -20.1623,-5.49968 -40.388,-22.94519 -53.75,-63.03125 a 11.402895,11.402895 0 0 0 -22.2188,3.59375 l 0,453.53125 a 11.402895,11.402895 0 0 0 22.2188,3.5938 c 13.362,-40.086 33.5883,-57.503 53.75,-63 20.1617,-5.4971 42.1844,1.0763 59.3125,15.0937 17.1281,14.0174 28.5277,34.9701 28.1563,56.0937 -0.3715,21.1237 -11.5426,43.7068 -44.5313,63.5 a 11.402895,11.402895 0 0 0 5.875,21.1876 l 255.125,0 a 11.402895,11.402895 0 0 0 5.875,-21.1876 c -32.9887,-19.7932 -44.1598,-42.3763 -44.5313,-63.5 -0.3714,-21.1236 11.0282,-42.0763 28.1563,-56.0937 17.1281,-14.0174 39.1508,-20.5908 59.3125,-15.0937 20.1617,5.497 40.388,22.914 53.75,63 a 11.402895,11.402895 0 0 0 22.2188,-3.5938 l 0,-453.53125 A 11.402895,11.402895 0 0 0 1661.625,822 c -13.362,40.08606 -33.5877,57.53157 -53.75,63.03125 -20.1623,5.49968 -42.1848,-1.08013 -59.3125,-15.09375 -17.1277,-14.01362 -28.5276,-34.97349 -28.1563,-56.09375 0.3714,-21.12026 11.5423,-43.70661 44.5313,-63.5 a 11.402895,11.402895 0 0 0 -5.875,-21.1875 l -255.125,0 z" />
        <path
           style="fill:none;stroke:#000000;stroke-width:0.99212599;stroke-linecap:butt;stroke-linejoin:miter;stroke-miterlimit:4;stroke-opacity:1;stroke-dasharray:none"
           d="m 1672.4409,1279.1338 0,-453.54327 c -56.6929,170.0787 -255.1182,0 -113.3859,-85.03941 l -255.1181,0 c 141.7323,85.03941 -56.6929,255.1181 -113.3859,85.03941 l 0,453.54327 c 56.693,-170.0787 255.1182,0 113.3859,85.0394 l 255.1181,0 c -141.7323,-85.0394 56.693,-255.1181 113.3859,-85.0394 z"
           id="path3027"
           inkscape:connector-curvature="0"
           sodipodi:nodetypes="ccccccccc" />
      </g>
      <g
         transform="translate(602.37177,291.77751)"
         id="g3883">
        <g
           transform="translate(180.95927,-19.669486)"
           id="g3877">
          <path
             d="m 969.875,77.625 c -16.07082,-0.57463 -32.79119,2.318246 -48.3125,10.625 -29.95826,16.03317 -57.18647,47.15168 -61.9375,92.78125 -2.4921,23.9345 4.39298,51.86392 15.59375,78.71875 11.20077,26.85483 26.87275,52.47303 43.71875,70.78125 15.8073,17.17937 29.38129,31.75191 43.84375,42.46875 14.46246,10.71684 30.30368,17.46876 48.49995,17.46875 31.209,-10e-6 53.8002,-20.92005 60.9376,-28.375 l 24.0937,0 a 9.9547698,9.9547698 0 0 0 9.9687,-9.96875 l 0,-198.40625 a 9.9547698,9.9547698 0 0 0 -9.9687,-9.96875 l -23.2187,0 c -3.0272,-4.26887 -8.2482,-11.40218 -16.375,-20.90625 -11.3899,-13.32012 -25.4898,-28.316599 -41.625,-35 C 1001.4343,82.185798 985.94595,78.199635 969.875,77.625 z"
             inkscape:href="#path3822"
             id="path3869"
             style="fill:none;stroke:#000000;stroke-width:1px;stroke-linecap:butt;stroke-linejoin:miter;stroke-opacity:1"
             xlink:href="#path3822"
             inkscape:original="M 969.53125 87.5625 C 954.89073 87.039012 940.00735 89.668537 926.25 97.03125 C 898.73529 111.75667 873.93013 139.81507 869.53125 182.0625 C 865.13237 224.30992 894.71706 289.51127 926.25 323.78125 C 957.78294 358.05123 979.58899 380.50001 1011.2812 380.5 C 1042.9736 380.49999 1067.9688 352.125 1067.9688 352.125 L 1096.3125 352.125 L 1096.3125 153.71875 L 1067.9688 153.71875 C 1067.9688 153.71875 1036.7212 107.56877 1011.2812 97.03125 C 998.56135 91.762488 984.17177 88.085988 969.53125 87.5625 z "
             inkscape:radius="9.9537745"
             sodipodi:type="inkscape:offset" />
          <path
             sodipodi:nodetypes="czzzzzcccc"
             inkscape:connector-curvature="0"
             id="path3822"
             d="m 1067.9692,352.13873 c 0,0 -25.0006,28.34645 -56.6929,28.34646 -31.69226,1e-5 -53.50639,-22.42294 -85.03933,-56.69292 -31.53294,-34.26998 -61.09179,-99.48485 -56.69291,-141.73227 4.39888,-42.24743 29.1782,-70.31395 56.69291,-85.039372 27.51471,-14.725426 59.59954,-10.537523 85.03933,0 25.4399,10.537522 56.6929,56.692912 56.6929,56.692912 l 28.3465,0 0,198.42519 z"
             style="fill:none;stroke:#000000;stroke-width:1px;stroke-linecap:butt;stroke-linejoin:miter;stroke-opacity:1" />
        </g>
        <use
           x="0"
           y="0"
           xlink:href="#g3877"
           id="use3881"
           transform="matrix(-1,0,0,1,2369.4434,346.18296)"
           width="990"
           height="765" />
      </g>
      <use
         height="765"
         width="990"
         transform="translate(1028.2873,6.59711)"
         id="page-belly"
         xlink:href="#page-rflank"
         y="0"
         x="0" />
      <use
         height="765"
         width="990"
         transform="translate(1050.7316,883.65318)"
         id="use5300"
         xlink:href="#g5285"
         y="0"
         x="0" />
      <text
         xml:space="preserve"
         style="font-size:40px;font-style:normal;font-variant:normal;font-weight:normal;font-stretch:normal;text-align:center;line-height:125%;letter-spacing:0px;word-spacing:0px;text-anchor:middle;fill:#000000;fill-opacity:1;stroke:none;font-family:Linux Biolinum O;-inkscape-font-specification:Linux Biolinum O"
         x="1305.3865"
         y="661.13354"
         id="text5392"
         sodipodi:linespacing="125%"><tspan
           sodipodi:role="line"
           id="tspan5394"
           x="1305.3865"
           y="661.13354">Underbelly</tspan></text>
      <text
         xml:space="preserve"
         style="font-size:40px;font-style:normal;font-variant:normal;font-weight:normal;font-stretch:normal;text-align:center;line-height:125%;letter-spacing:0px;word-spacing:0px;text-anchor:middle;fill:#000000;fill-opacity:1;stroke:none;font-family:Linux Biolinum O;-inkscape-font-specification:Linux Biolinum O"
         x="1779.8965"
         y="492.63412"
         id="text5396"
         sodipodi:linespacing="125%"><tspan
           sodipodi:role="line"
           id="tspan5398"
           x="1779.8965"
           y="492.63412">Left</tspan><tspan
           sodipodi:role="line"
           x="1779.8965"
           y="542.63416"
           id="tspan5400">Ear</tspan></text>
      <text
         xml:space="preserve"
         style="font-size:40px;font-style:normal;font-variant:normal;font-weight:normal;font-stretch:normal;text-align:center;line-height:125%;letter-spacing:0px;word-spacing:0px;text-anchor:middle;fill:#000000;fill-opacity:1;stroke:none;font-family:Linux Biolinum O;-inkscape-font-specification:Linux Biolinum O"
         x="1810.8849"
         y="829.63306"
         id="text5402"
         sodipodi:linespacing="125%"><tspan
           sodipodi:role="line"
           id="tspan5404"
           x="1810.8849"
           y="829.63306">Right</tspan><tspan
           sodipodi:role="line"
           x="1810.8849"
           y="879.63306"
           id="tspan5406">Ear</tspan></text>
      <text
         xml:space="preserve"
         style="font-size:40px;font-style:normal;font-variant:normal;font-weight:normal;font-stretch:normal;text-align:center;line-height:125%;letter-spacing:0px;word-spacing:0px;text-anchor:middle;fill:#000000;fill-opacity:1;stroke:none;font-family:Linux Libertine O;-inkscape-font-specification:Linux Libertine O"
         x="1323.9456"
         y="386.48395"
         id="text3292"
         sodipodi:linespacing="125%"><tspan
           sodipodi:role="line"
           id="tspan3294"
           x="1323.9456"
           y="386.48395">Q'-I'</tspan></text>
      <text
         xml:space="preserve"
         style="font-size:40px;font-style:normal;font-variant:normal;font-weight:normal;font-stretch:normal;text-align:center;line-height:125%;letter-spacing:0px;word-spacing:0px;text-anchor:middle;fill:#000000;fill-opacity:1;stroke:none;font-family:Linux Libertine O;-inkscape-font-specification:Linux Libertine O"
         x="1323.0275"
         y="963.38721"
         id="text3296"
         sodipodi:linespacing="125%"><tspan
           sodipodi:role="line"
           id="tspan3298"
           x="1323.0275"
           y="963.38721">S'-K'</tspan></text>
      <text
         xml:space="preserve"
         style="font-size:40px;font-style:normal;font-variant:normal;font-weight:normal;font-stretch:normal;text-align:center;line-height:125%;letter-spacing:0px;word-spacing:0px;text-anchor:middle;fill:#000000;fill-opacity:1;stroke:none;font-family:Linux Libertine O;-inkscape-font-specification:Linux Libertine O"
         x="1532.4092"
         y="672.27484"
         id="text3300"
         sodipodi:linespacing="125%"><tspan
           sodipodi:role="line"
           id="tspan3302"
           x="1532.4092"
           y="672.27484">J'</tspan></text>
      <text
         xml:space="preserve"
         style="font-size:40px;font-style:normal;font-variant:normal;font-weight:normal;font-stretch:normal;text-align:center;line-height:125%;letter-spacing:0px;word-spacing:0px;text-anchor:middle;fill:#000000;fill-opacity:1;stroke:none;font-family:Linux Libertine O;-inkscape-font-specification:Linux Libertine O"
         x="1101.7642"
         y="672.27484"
         id="text3304"
         sodipodi:linespacing="125%"><tspan
           sodipodi:role="line"
           id="tspan3306"
           x="1101.7642"
           y="672.27484">R'</tspan></text>
      <text
         xml:space="preserve"
         style="font-size:40px;font-style:normal;font-variant:normal;font-weight:normal;font-stretch:normal;text-align:center;line-height:125%;letter-spacing:0px;word-spacing:0px;text-anchor:middle;fill:#000000;fill-opacity:1;stroke:none;font-family:Linux Libertine O;-inkscape-font-specification:Linux Libertine O"
         x="1843.9969"
         y="524.39648"
         id="text3340"
         sodipodi:linespacing="125%"><tspan
           sodipodi:role="line"
           id="tspan3342"
           x="1843.9969"
           y="524.39648">O'''</tspan></text>
      <text
         xml:space="preserve"
         style="font-size:40px;font-style:normal;font-variant:normal;font-weight:normal;font-stretch:normal;text-align:center;line-height:125%;letter-spacing:0px;word-spacing:0px;text-anchor:middle;fill:#000000;fill-opacity:1;stroke:none;font-family:Linux Libertine O;-inkscape-font-specification:Linux Libertine O"
         x="1729.6469"
         y="860.97424"
         id="text3348"
         sodipodi:linespacing="125%"><tspan
           sodipodi:role="line"
           id="tspan3350"
           x="1729.6469"
           y="860.97424">F'''</tspan></text>
      <use
         x="0"
         y="0"
         xlink:href="#g3243"
         id="use3257-0"
         transform="translate(-1465.5353,-866.6199)"
         width="990"
         height="765"
         inkscape:transform-center-x="-43.821558"
         inkscape:transform-center-y="-141.46531" />
    </g>
    <g
       id="g-head"
       transform="matrix(0,-1,1,0,523.34634,-46.989834)">
      <g
         transform="translate(-1667.6109,-658.55056)"
         id="g3934">
        <path
           sodipodi:type="inkscape:offset"
           inkscape:radius="11.661856"
           inkscape:original="M 1133.8438 258.65625 L 1190.5625 457.09375 L 992.125 400.40625 L 992.125 598.8125 L 1105.5 598.8125 L 1105.5 1024.0312 L 1360.625 1024.0312 L 1360.625 598.8125 L 1474.0312 598.8125 L 1474.0312 400.40625 L 1275.5938 457.09375 L 1332.2812 258.65625 L 1133.8438 258.65625 z "
           xlink:href="#path3050"
           style="fill:none;stroke:#000000;stroke-width:1px;stroke-linecap:butt;stroke-linejoin:miter;stroke-opacity:1"
           id="path3867"
           inkscape:href="#path3050"
           d="m 1133.8438,247 a 11.663022,11.663022 0 0 0 -11.2188,14.875 l 50.9375,178.21875 -178.21875,-50.90625 a 11.663022,11.663022 0 0 0 -14.875,11.21875 l 0,198.40625 a 11.663022,11.663022 0 0 0 11.65625,11.65625 l 101.7188,0 0,413.56245 a 11.663022,11.663022 0 0 0 11.6562,11.6563 l 255.125,0 a 11.663022,11.663022 0 0 0 11.6562,-11.6563 l 0,-413.56245 101.75,0 a 11.663022,11.663022 0 0 0 11.6563,-11.65625 l 0,-198.40625 a 11.663022,11.663022 0 0 0 -14.875,-11.21875 L 1292.5938,440.09375 1343.5,261.875 A 11.663022,11.663022 0 0 0 1332.2812,247 l -198.4374,0 z" />
        <path
           style="fill:none;stroke:#000000;stroke-width:1px;stroke-linecap:butt;stroke-linejoin:miter;stroke-opacity:1"
           d="m 1332.2836,258.66138 -56.6929,198.42521 198.4252,-56.69292 0,198.4252 -198.4253,0 85.0394,-10e-6 -1e-4,425.19684 -255.1181,0 10e-5,-425.19684 85.0394,10e-6 -198.42532,0 0,-198.4252 198.42532,56.69292 -56.693,-198.42521 c 47.8326,0 132.6417,0 198.4253,0 z"
           id="path3050"
           inkscape:connector-curvature="0"
           sodipodi:nodetypes="ccccccccccccccc" />
      </g>
      <use
         height="765"
         width="990"
         transform="matrix(0,1,-1,0,249.32652,-499.09744)"
         id="page-head"
         xlink:href="#page-rflank"
         y="0"
         x="0" />
      <use
         height="765"
         width="990"
         transform="translate(-864.03551,110.89367)"
         id="use5302"
         xlink:href="#g5285"
         y="0"
         x="0" />
      <text
         xml:space="preserve"
         style="font-size:40px;font-style:normal;font-variant:normal;font-weight:normal;font-stretch:normal;text-align:center;line-height:125%;letter-spacing:0px;word-spacing:0px;text-anchor:middle;fill:#000000;fill-opacity:1;stroke:none;font-family:Linux Biolinum O;-inkscape-font-specification:Linux Biolinum O"
         x="-801.82495"
         y="-410.62262"
         id="text5380"
         sodipodi:linespacing="125%"
         transform="matrix(0,1,-1,0,-851.63637,524.37107)"><tspan
           sodipodi:role="line"
           id="tspan5382"
           x="-801.82495"
           y="-410.62262">Head</tspan></text>
      <text
         xml:space="preserve"
         style="font-size:40px;font-style:normal;font-variant:normal;font-weight:normal;font-stretch:normal;text-align:center;line-height:125%;letter-spacing:0px;word-spacing:0px;text-anchor:middle;fill:#000000;fill-opacity:1;stroke:none;font-family:Linux Biolinum O;-inkscape-font-specification:Linux Biolinum O"
         x="-420.28024"
         y="-414.49615"
         id="text5384"
         sodipodi:linespacing="125%"
         transform="matrix(0,1,-1,0,-851.63637,524.37107)"><tspan
           sodipodi:role="line"
           id="tspan5386"
           x="-420.28024"
           y="-414.49615">Trunk</tspan></text>
      <text
         xml:space="preserve"
         style="font-size:40px;font-style:normal;font-variant:normal;font-weight:normal;font-stretch:normal;text-align:center;line-height:125%;letter-spacing:0px;word-spacing:0px;text-anchor:middle;fill:#000000;fill-opacity:1;stroke:none;font-family:Linux Libertine O;-inkscape-font-specification:Linux Libertine O"
         x="-328.96237"
         y="495.70703"
         id="text3221"
         sodipodi:linespacing="125%"
         transform="matrix(0,1,-1,0,0,0)"><tspan
           sodipodi:role="line"
           id="tspan3223"
           x="-328.96237"
           y="495.70703">T</tspan></text>
      <text
         xml:space="preserve"
         style="font-size:40px;font-style:normal;font-variant:normal;font-weight:normal;font-stretch:normal;text-align:center;line-height:125%;letter-spacing:0px;word-spacing:0px;text-anchor:middle;fill:#000000;fill-opacity:1;stroke:none;font-family:Linux Libertine O;-inkscape-font-specification:Linux Libertine O"
         x="-217.02501"
         y="635.7951"
         id="text3225"
         sodipodi:linespacing="125%"
         transform="matrix(0,1,-1,0,0,0)"><tspan
           sodipodi:role="line"
           id="tspan3227"
           x="-217.02501"
           y="635.7951">T'</tspan></text>
      <text
         xml:space="preserve"
         style="font-size:40px;font-style:normal;font-variant:normal;font-weight:normal;font-stretch:normal;text-align:center;line-height:125%;letter-spacing:0px;word-spacing:0px;text-anchor:middle;fill:#000000;fill-opacity:1;stroke:none;font-family:Linux Libertine O;-inkscape-font-specification:Linux Libertine O"
         x="-326.98959"
         y="389.79907"
         id="text3229"
         sodipodi:linespacing="125%"
         transform="matrix(0,1,-1,0,0,0)"><tspan
           sodipodi:role="line"
           id="tspan3231"
           x="-326.98959"
           y="389.79907">U</tspan></text>
      <text
         xml:space="preserve"
         style="font-size:40px;font-style:normal;font-variant:normal;font-weight:normal;font-stretch:normal;text-align:center;line-height:125%;letter-spacing:0px;word-spacing:0px;text-anchor:middle;fill:#000000;fill-opacity:1;stroke:none;font-family:Linux Libertine O;-inkscape-font-specification:Linux Libertine O"
         x="-209.68823"
         y="294.84082"
         id="text3233"
         sodipodi:linespacing="125%"
         transform="matrix(0,1,-1,0,0,0)"><tspan
           sodipodi:role="line"
           id="tspan3235"
           x="-209.68823"
           y="294.84082">U'</tspan></text>
      <text
         xml:space="preserve"
         style="font-size:40px;font-style:normal;font-variant:normal;font-weight:normal;font-stretch:normal;text-align:center;line-height:125%;letter-spacing:0px;word-spacing:0px;text-anchor:middle;fill:#000000;fill-opacity:1;stroke:none;font-family:Linux Libertine O;-inkscape-font-specification:Linux Libertine O"
         x="-202.94994"
         y="-123.13868"
         id="text3276"
         sodipodi:linespacing="125%"
         transform="matrix(0,1,-1,0,-564.27419,524.37107)"><tspan
           sodipodi:role="line"
           id="tspan3278"
           x="-202.94994"
           y="-123.13868">V</tspan></text>
      <text
         xml:space="preserve"
         style="font-size:40px;font-style:normal;font-variant:normal;font-weight:normal;font-stretch:normal;text-align:center;line-height:125%;letter-spacing:0px;word-spacing:0px;text-anchor:middle;fill:#000000;fill-opacity:1;stroke:none;font-family:Linux Libertine O;-inkscape-font-specification:Linux Libertine O"
         x="125.60288"
         y="540.58618"
         id="text3308"
         sodipodi:linespacing="125%"
         transform="matrix(0,1,-1,0,0,0)"><tspan
           sodipodi:role="line"
           id="tspan3310"
           x="125.60288"
           y="540.58618">Y</tspan></text>
      <text
         xml:space="preserve"
         style="font-size:40px;font-style:normal;font-variant:normal;font-weight:normal;font-stretch:normal;text-align:center;line-height:125%;letter-spacing:0px;word-spacing:0px;text-anchor:middle;fill:#000000;fill-opacity:1;stroke:none;font-family:Linux Libertine O;-inkscape-font-specification:Linux Libertine O"
         x="125.60288"
         y="343.7471"
         id="text3312"
         sodipodi:linespacing="125%"
         transform="matrix(0,1,-1,0,0,0)"><tspan
           sodipodi:role="line"
           id="tspan3314"
           x="125.60288"
           y="343.7471">Y'</tspan></text>
      <text
         xml:space="preserve"
         style="font-size:40px;font-style:normal;font-variant:normal;font-weight:normal;font-stretch:normal;text-align:center;line-height:125%;letter-spacing:0px;word-spacing:0px;text-anchor:middle;fill:#000000;fill-opacity:1;stroke:none;font-family:Linux Libertine O;-inkscape-font-specification:Linux Libertine O"
         x="-615.24231"
         y="1.6437621"
         id="text3316"
         sodipodi:linespacing="125%"
         transform="matrix(0,1,-1,0,-564.27419,524.37107)"><tspan
           sodipodi:role="line"
           id="tspan3318"
           x="-615.24231"
           y="1.6437621">G'</tspan></text>
      <text
         xml:space="preserve"
         style="font-size:40px;font-style:normal;font-variant:normal;font-weight:normal;font-stretch:normal;text-align:center;line-height:125%;letter-spacing:0px;word-spacing:0px;text-anchor:middle;fill:#000000;fill-opacity:1;stroke:none;font-family:Linux Libertine O;-inkscape-font-specification:Linux Libertine O"
         x="-620.93903"
         y="-268.94894"
         id="text3320"
         sodipodi:linespacing="125%"
         transform="matrix(0,1,-1,0,-564.27419,524.37107)"><tspan
           sodipodi:role="line"
           id="tspan3322"
           x="-620.93903"
           y="-268.94894">P'</tspan></text>
      <text
         xml:space="preserve"
         style="font-size:40px;font-style:normal;font-variant:normal;font-weight:normal;font-stretch:normal;text-align:center;line-height:125%;letter-spacing:0px;word-spacing:0px;text-anchor:middle;fill:#000000;fill-opacity:1;stroke:none;font-family:Linux Libertine O;-inkscape-font-specification:Linux Libertine O"
         x="-680.75427"
         y="-334.46085"
         id="text3324"
         sodipodi:linespacing="125%"
         transform="matrix(0,1,-1,0,-564.27419,524.37107)"><tspan
           sodipodi:role="line"
           id="tspan3326"
           x="-680.75427"
           y="-334.46085">O'</tspan></text>
      <text
         xml:space="preserve"
         style="font-size:40px;font-style:normal;font-variant:normal;font-weight:normal;font-stretch:normal;text-align:center;line-height:125%;letter-spacing:0px;word-spacing:0px;text-anchor:middle;fill:#000000;fill-opacity:1;stroke:none;font-family:Linux Libertine O;-inkscape-font-specification:Linux Libertine O"
         x="-672.20923"
         y="92.790779"
         id="text3328"
         sodipodi:linespacing="125%"
         transform="matrix(0,1,-1,0,-564.27419,524.37107)"><tspan
           sodipodi:role="line"
           id="tspan3330"
           x="-672.20923"
           y="92.790779">F'</tspan></text>
      <text
         xml:space="preserve"
         style="font-size:40px;font-style:normal;font-variant:normal;font-weight:normal;font-stretch:normal;text-align:center;line-height:125%;letter-spacing:0px;word-spacing:0px;text-anchor:middle;fill:#000000;fill-opacity:1;stroke:none;font-family:Linux Libertine O;-inkscape-font-specification:Linux Libertine O"
         x="-426.36755"
         y="-367.39673"
         id="text3332"
         sodipodi:linespacing="125%"><tspan
           sodipodi:role="line"
           id="tspan3334"
           x="-426.36755"
           y="-367.39673">F'-O'</tspan></text>
      <use
         x="0"
         y="0"
         xlink:href="#g3243"
         id="use3257"
         transform="matrix(0,1,-1,0,1330.6897,-2899.9147)"
         width="990"
         height="765" />
    </g>
    <g
       id="g-tusks"
       transform="translate(1047.7174,517.28436)">
      <use
         height="765"
         width="990"
         transform="translate(-1034.108,2.7447445)"
         id="page-tusks"
         xlink:href="#page-rflank"
         y="0"
         x="0" />
      <path
         sodipodi:nodetypes="cscscc"
         inkscape:connector-curvature="0"
         id="path3824"
         d="m -1014.4482,490.03571 c 0,0 90.6921,255.15491 198.4252,255.11811 143.2622,-0.0489 255.1181,-255.11811 255.1181,-340.15748 0,0 -150.5715,224.43333 -255.1181,198.4252 -59.0948,-14.70106 -56.6929,-85.03937 -85.0393,-170.07874 z"
         style="fill:none;stroke:#000000;stroke-width:1px;stroke-linecap:butt;stroke-linejoin:miter;stroke-opacity:1" />
      <use
         height="765"
         width="990"
         transform="matrix(-1,0,0,1,-1108.7464,1.0288399e-6)"
         id="use5361"
         xlink:href="#path3824"
         y="0"
         x="0" />
      <use
         x="0"
         y="0"
         xlink:href="#path3824"
         id="use5368"
         transform="translate(0,298.88742)"
         width="990"
         height="765" />
      <use
         x="0"
         y="0"
         xlink:href="#path3824"
         id="use5370"
         transform="matrix(-1,0,0,1,-1108.7464,298.88742)"
         width="990"
         height="765" />
      <text
         xml:space="preserve"
         style="font-size:40px;font-style:normal;font-variant:normal;font-weight:normal;font-stretch:normal;text-align:start;line-height:125%;letter-spacing:0px;word-spacing:0px;text-anchor:start;fill:#000000;fill-opacity:1;stroke:none;font-family:Linux Libertine O;-inkscape-font-specification:Linux Libertine O"
         x="-862.20258"
         y="384.5473"
         id="text5467"
         sodipodi:linespacing="125%"><tspan
           sodipodi:role="line"
           x="-862.20258"
           y="384.5473"
           id="tspan5471">Cut this page from white or ivory fleece</tspan><tspan
           sodipodi:role="line"
           x="-862.20258"
           y="434.5473"
           id="tspan5475"><tspan
   style="font-weight:bold;-inkscape-font-specification:Linux Libertine O Bold"
   id="tspan3218">Tusks</tspan>!</tspan></text>
      <text
         xml:space="preserve"
         style="font-size:40px;font-style:normal;font-variant:normal;font-weight:normal;font-stretch:normal;text-align:center;line-height:125%;letter-spacing:0px;word-spacing:0px;text-anchor:middle;fill:#000000;fill-opacity:1;stroke:none;font-family:Linux Libertine O;-inkscape-font-specification:Linux Libertine O"
         x="-955.4928"
         y="491.01007"
         id="text3087"
         sodipodi:linespacing="125%"><tspan
           sodipodi:role="line"
           id="tspan3089"
           x="-955.4928"
           y="491.01007">x</tspan></text>
      <use
         x="0"
         y="0"
         xlink:href="#text3087"
         id="use3103"
         transform="translate(0.50294011,293.96849)"
         width="990"
         height="765" />
      <use
         x="0"
         y="0"
         xlink:href="#text3087"
         id="use3105"
         transform="translate(804.4527,-3.2691107)"
         width="990"
         height="765" />
      <use
         x="0"
         y="0"
         xlink:href="#text3087"
         id="use3107"
         transform="translate(796.9086,291.95673)"
         width="990"
         height="765" />
      <use
         x="0"
         y="0"
         xlink:href="#g3243"
         id="use3257-4"
         transform="translate(-3449.3142,-1050.5248)"
         width="990"
         height="765" />
    </g>
    <g
       id="g3243"
       transform="matrix(0.78429959,0,0,0.78429959,3372.511,1798.4611)">
      <path
         sodipodi:nodetypes="cssccccccsscssc"
         inkscape:connector-curvature="0"
         id="path3215"
         d="m -354.03352,-372.20966 -28.96638,-10.1808 c -16.33176,-5.74011 -8.28242,53.49533 12.06932,45.86343 l 19.31092,-7.24159 13.67857,8.85084 -2.09407,48.9929 c 5.42446,1.41163 10.84772,2.82992 17.27297,-1.26279 l -1.83108,-49.09767 8.37696,-11.50639 21.29013,18.20523 c 14.46398,12.36818 21.45666,-66.47555 2.0439,-55.21783 l -22.98445,13.32899 -10.55312,-6.86233 c -5.75329,-3.74116 -15.00443,-2.4004 -17.70168,0 z"
         style="fill:none;stroke:#000000" />
      <path
         sodipodi:nodetypes="cccccc"
         inkscape:connector-curvature="0"
         id="path3217"
         d="m -348.40117,-345.37787 -5.36573,8.836 4.56111,4.84257 -19.31092,-20.11554 16.09243,29.771 13.67857,-13.67857"
         style="fill:#ffffff;stroke:#000000;stroke-width:1px;stroke-linecap:butt;stroke-linejoin:miter;stroke-opacity:1" />
      <use
         height="765"
         width="990"
         transform="matrix(-1,0,0,1,-664.2819,-3.3734172)"
         id="use3219"
         xlink:href="#path3217"
         y="0"
         x="0" />
      <text
         sodipodi:linespacing="77.999997%"
         id="text3222"
         y="-326.1301"
         x="-330.48511"
         style="font-size:40px;font-style:normal;font-variant:normal;font-weight:normal;font-stretch:normal;text-align:center;line-height:77.99999714%;letter-spacing:0px;word-spacing:0px;text-anchor:middle;fill:#000000;fill-opacity:1;stroke:none;font-family:Linux Libertine O;-inkscape-font-specification:Linux Libertine O"
         xml:space="preserve"><tspan
           style="font-size:18px;font-style:normal;font-variant:normal;font-weight:500;font-stretch:normal;line-height:77.99999714%;font-family:DkgHandwriting;-inkscape-font-specification:DkgHandwriting Medium"
           y="-326.1301"
           x="-330.48511"
           id="tspan3224"
           sodipodi:role="line">d</tspan><tspan
           style="font-size:18px;font-style:normal;font-variant:normal;font-weight:500;font-stretch:normal;line-height:77.99999714%;font-family:DkgHandwriting;-inkscape-font-specification:DkgHandwriting Medium"
           id="tspan3226"
           y="-312.09009"
           x="-330.48511"
           sodipodi:role="line">k</tspan><tspan
           style="font-size:18px;font-style:normal;font-variant:normal;font-weight:500;font-stretch:normal;line-height:77.99999714%;font-family:DkgHandwriting;-inkscape-font-specification:DkgHandwriting Medium"
           id="tspan3228"
           y="-298.05011"
           x="-330.48511"
           sodipodi:role="line" /></text>
      <text
         sodipodi:linespacing="125%"
         id="text3235"
         y="-361.26883"
         x="-333.91699"
         style="font-size:22.49869156px;font-style:normal;font-variant:normal;font-weight:normal;font-stretch:normal;text-align:center;line-height:125%;letter-spacing:0px;word-spacing:0px;text-anchor:middle;fill:#000000;fill-opacity:1;stroke:none;font-family:Linux Libertine O;-inkscape-font-specification:Linux Libertine O"
         xml:space="preserve"><tspan
           style="font-style:normal;font-variant:normal;font-weight:500;font-stretch:normal;font-family:DkgHandwriting;-inkscape-font-specification:DkgHandwriting Medium"
           y="-361.26883"
           x="-333.91699"
           id="tspan3237"
           sodipodi:role="line">woolly</tspan></text>
      <text
         sodipodi:linespacing="125%"
         id="text3239"
         y="-345.93674"
         x="-333.65085"
         style="font-size:22.49869156px;font-style:normal;font-variant:normal;font-weight:normal;font-stretch:normal;text-align:center;line-height:125%;letter-spacing:0px;word-spacing:0px;text-anchor:middle;fill:#000000;fill-opacity:1;stroke:none;font-family:Linux Libertine O;-inkscape-font-specification:Linux Libertine O"
         xml:space="preserve"><tspan
           style="font-style:normal;font-variant:normal;font-weight:500;font-stretch:normal;font-family:DkgHandwriting;-inkscape-font-specification:DkgHandwriting Medium"
           y="-345.93674"
           x="-333.65085"
           id="tspan3241"
           sodipodi:role="line">mammoth</tspan></text>
      <text
         xml:space="preserve"
         style="font-size:51.00091934px;font-style:normal;font-variant:normal;font-weight:normal;font-stretch:normal;text-align:center;line-height:125%;letter-spacing:0px;word-spacing:0px;text-anchor:middle;fill:#000000;fill-opacity:1;stroke:none;font-family:Linux Libertine O;-inkscape-font-specification:Linux Libertine O"
         x="-330.40222"
         y="-305.14041"
         id="text3212"
         sodipodi:linespacing="125%"><tspan
           sodipodi:role="line"
           id="tspan3214"
           x="-330.40222"
           y="-305.14041"
           style="font-size:17.99057388px;font-style:normal;font-variant:normal;font-weight:500;font-stretch:normal;font-family:DkgHandwriting;-inkscape-font-specification:DkgHandwriting Medium">g</tspan></text>
    </g>
  </g>
</svg>
